UART_RX/Delivering/Simulation/tb_results.vcd
$date
	Thu Aug 15 17:55:47 2024
$end
$version
	QuestaSim Version 2021.1
$end
$timescale
	1ps
$end

$scope module tb_UART_Rx $end
$var parameter 0 ! RX_Clock_Period $end
$var parameter 8 " prescale_value $end
$var parameter 0 # TX_Clock_Period $end
$var parameter 1 $ EVEN $end
$var parameter 1 % ODD $end
$var parameter 1 & ENABLED $end
$var parameter 1 ' DISABLED $end
$var parameter 1 ( START_BIT $end
$var parameter 1 ) STOP_BIT $end
$var reg 1 * RX_CLK $end
$var reg 1 + tb_RST $end
$var reg 1 , tb_RX_IN $end
$var reg 1 - tb_PAR_TYP $end
$var reg 1 . tb_PAR_EN $end
$var reg 6 / tb_Prescale [5:0] $end
$var wire 1 0 tb_P_DATA [7] $end
$var wire 1 1 tb_P_DATA [6] $end
$var wire 1 2 tb_P_DATA [5] $end
$var wire 1 3 tb_P_DATA [4] $end
$var wire 1 4 tb_P_DATA [3] $end
$var wire 1 5 tb_P_DATA [2] $end
$var wire 1 6 tb_P_DATA [1] $end
$var wire 1 7 tb_P_DATA [0] $end
$var wire 1 8 tb_Data_valid $end
$var wire 1 9 tb_Parity_Error $end
$var wire 1 : tb_Stop_Error $end
$var reg 11 ; count_tx_clk [10:0] $end
$var reg 1 < TX_CLK $end

$scope task Initialization $end
$upscope $end

$scope task Reset_Test $end
$var reg 1 = success_flag $end
$upscope $end

$scope task Single_Packet $end
$var reg 8 > Data_IN [7:0] $end
$var reg 1 ? parity_bit $end
$var reg 1 @ start_bit $end
$var reg 1 A stop_bit $end
$var reg 1 B parity_enable $end
$var reg 1 C parity_type $end
$upscope $end

$scope task Double_Packet $end
$var reg 8 D Data_IN_1 [7:0] $end
$var reg 1 E parity_bit_1 $end
$var reg 8 F Data_IN_2 [7:0] $end
$var reg 1 G parity_bit_2 $end
$var reg 1 H parity_enable $end
$var reg 1 I parity_type $end
$var reg 1 J success_flag $end
$upscope $end

$scope task check_output $end
$var reg 8 K reference_P_Data [7:0] $end
$var reg 1 L reference_Data_Valid $end
$var reg 1 M reference_Parity_Error $end
$var reg 1 N reference_Stop_Error $end
$var reg 1 O output_observation_flag $end
$upscope $end

$scope task Configuration_inputs $end
$var reg 1 P parity_enable $end
$var reg 1 Q parity_type $end
$upscope $end

$scope task load_start_bit $end
$var reg 1 R start_bit $end
$var reg 1 S success_flag $end
$upscope $end

$scope task load_Data_bits $end
$var reg 8 T Data_IN [7:0] $end
$var reg 1 U success_flag $end
$var integer 32 V i $end
$upscope $end

$scope task load_parity_bit $end
$var reg 1 W parity_bit $end
$var reg 1 X parity_type $end
$var reg 8 Y Data_IN [7:0] $end
$var reg 1 Z right_even_parity $end
$var reg 1 [ right_odd_parity $end
$var reg 1 \ success_flag $end
$upscope $end

$scope task load_stop_bit $end
$var reg 1 ] stop_bit $end
$var reg 8 ^ Data_IN [7:0] $end
$var reg 1 _ success_flag $end
$upscope $end

$scope task load_void_data $end
$var reg 8 ` Data_IN [7:0] $end
$var reg 1 a stop_bit $end
$var reg 1 b success_flag $end
$upscope $end

$scope task Reset $end
$upscope $end

$scope module DUT $end
$var wire 1 c CLK $end
$var wire 1 d RST $end
$var wire 1 e RX_IN $end
$var wire 1 f PAR_TYP $end
$var wire 1 g PAR_EN $end
$var wire 1 h Prescale [5] $end
$var wire 1 i Prescale [4] $end
$var wire 1 j Prescale [3] $end
$var wire 1 k Prescale [2] $end
$var wire 1 l Prescale [1] $end
$var wire 1 m Prescale [0] $end
$var wire 1 0 P_DATA [7] $end
$var wire 1 1 P_DATA [6] $end
$var wire 1 2 P_DATA [5] $end
$var wire 1 3 P_DATA [4] $end
$var wire 1 4 P_DATA [3] $end
$var wire 1 5 P_DATA [2] $end
$var wire 1 6 P_DATA [1] $end
$var wire 1 7 P_DATA [0] $end
$var wire 1 8 data_valid $end
$var wire 1 9 Parity_Error $end
$var wire 1 : Stop_Error $end
$var wire 1 n BIT_COUNT_UART_Rx [3] $end
$var wire 1 o BIT_COUNT_UART_Rx [2] $end
$var wire 1 p BIT_COUNT_UART_Rx [1] $end
$var wire 1 q BIT_COUNT_UART_Rx [0] $end
$var wire 1 r Bit_TICK_UART_Rx $end
$var wire 1 s sampled_bit_UART_Rx $end
$var wire 1 t Data_out_UART_Rx [7] $end
$var wire 1 u Data_out_UART_Rx [6] $end
$var wire 1 v Data_out_UART_Rx [5] $end
$var wire 1 w Data_out_UART_Rx [4] $end
$var wire 1 x Data_out_UART_Rx [3] $end
$var wire 1 y Data_out_UART_Rx [2] $end
$var wire 1 z Data_out_UART_Rx [1] $end
$var wire 1 { Data_out_UART_Rx [0] $end
$var wire 1 | start_bit_UART_Rx $end
$var wire 1 } parity_bit_UART_Rx $end
$var wire 1 ~ stop_bit_UART_Rx $end
$var wire 1 !! block_enable_word_UART_Rx [3] $end
$var wire 1 "! block_enable_word_UART_Rx [2] $end
$var wire 1 #! block_enable_word_UART_Rx [1] $end
$var wire 1 $! block_enable_word_UART_Rx [0] $end
$var wire 1 %! error_flag_word_UART_Rx [2] $end
$var wire 1 &! error_flag_word_UART_Rx [1] $end
$var wire 1 '! error_flag_word_UART_Rx [0] $end
$var reg 2 (! Prescale_Select [1:0] $end
$var wire 1 )! sample_one_bit_UART_Rx $end
$var wire 1 *! sample_three_bit_UART_Rx $end
$var wire 1 +! start_bit_detector_UART_Rx $end
$var wire 1 ,! stop_bit $end

$scope module UART_Sampling_Register $end
$var wire 1 c clk $end
$var wire 1 d rst_n $end
$var wire 1 n BIT_COUNT [3] $end
$var wire 1 o BIT_COUNT [2] $end
$var wire 1 p BIT_COUNT [1] $end
$var wire 1 q BIT_COUNT [0] $end
$var wire 1 )! sample_one_bit $end
$var wire 1 *! sample_three_bit $end
$var wire 1 g PAR_EN $end
$var wire 1 8 Data_valid $end
$var wire 1 s sampled_bit $end
$var wire 1 t Data_out [7] $end
$var wire 1 u Data_out [6] $end
$var wire 1 v Data_out [5] $end
$var wire 1 w Data_out [4] $end
$var wire 1 x Data_out [3] $end
$var wire 1 y Data_out [2] $end
$var wire 1 z Data_out [1] $end
$var wire 1 { Data_out [0] $end
$var wire 1 | start_bit $end
$var wire 1 } parity_bit $end
$var wire 1 ~ stop_bit $end
$var reg 11 -! sampled_data_register [10:0] $end
$upscope $end

$scope module UART_Config_block $end
$var wire 1 c clk $end
$var wire 1 d rst_n $end
$var wire 1 !! block_enable_word [3] $end
$var wire 1 "! block_enable_word [2] $end
$var wire 1 #! block_enable_word [1] $end
$var wire 1 $! block_enable_word [0] $end
$var wire 1 %! error_flag_word [2] $end
$var wire 1 &! error_flag_word [1] $end
$var wire 1 '! error_flag_word [0] $end
$var reg 1 .! BIT_TICK $end
$var reg 1 /! sample_one_bit $end
$var reg 1 0! sample_three_bit $end
$var wire 1 1! Prescale [1] $end
$var wire 1 2! Prescale [0] $end
$var wire 1 f PAR_TYP $end
$var wire 1 | start_bit $end
$var wire 1 } parity_bit $end
$var wire 1 ,! stop_bit $end
$var wire 1 t data_out [7] $end
$var wire 1 u data_out [6] $end
$var wire 1 v data_out [5] $end
$var wire 1 w data_out [4] $end
$var wire 1 x data_out [3] $end
$var wire 1 y data_out [2] $end
$var wire 1 z data_out [1] $end
$var wire 1 { data_out [0] $end
$var wire 1 3! sampler_enable $end
$var wire 1 4! start_enable $end
$var wire 1 5! parity_enable $end
$var wire 1 6! stop_enable $end
$var reg 1 7! start_error $end
$var reg 1 8! parity_error $end
$var reg 1 9! stop_error $end
$var reg 8 :! Edge_counter [7:0] $end
$var wire 1 ;! obtained_even_parity_bit $end
$var wire 1 <! obtained_odd_parity_bit $end
$upscope $end

$scope module UART_Sampler $end
$var wire 1 c clk $end
$var wire 1 d rst_n $end
$var wire 1 e Serial_Data_IN $end
$var reg 1 =! Sampled_Bit_OUT $end
$var wire 1 )! sample_one_bit $end
$var wire 1 *! sample_three_bit $end
$var wire 1 !! sampler_enable $end
$var wire 1 +! start_bit_detector $end
$var reg 3 >! Data_Storage [2:0] $end
$upscope $end

$scope module UART_FSM_Controller $end
$var parameter 3 ?! IDLE $end
$var parameter 3 @! START $end
$var parameter 3 A! DATA $end
$var parameter 3 B! PARITY $end
$var parameter 3 C! STOP $end
$var parameter 3 D! DONE $end
$var wire 1 c clk $end
$var wire 1 d rst_n $end
$var wire 1 g PAR_EN $end
$var reg 1 E! Data_valid $end
$var reg 4 F! block_enable_word [3:0] $end
$var wire 1 %! error_flag_word [2] $end
$var wire 1 &! error_flag_word [1] $end
$var wire 1 '! error_flag_word [0] $end
$var wire 1 r BIT_TICK $end
$var wire 1 n BIT_COUNT [3] $end
$var wire 1 o BIT_COUNT [2] $end
$var wire 1 p BIT_COUNT [1] $end
$var wire 1 q BIT_COUNT [0] $end
$var wire 1 +! start_bit_detector $end
$var reg 4 G! BIT_COUNT_reg [3:0] $end
$var reg 1 H! BIT_COUNT_CLR $end
$var reg 3 I! current_state [2:0] $end
$var reg 3 J! next_state [2:0] $end
$upscope $end
$upscope $end
$upscope $end

$scope begin std $end
$upscope $end
$enddefinitions $end
#0
$dumpvars
1*
1+
1,
0-
0.
b10000 /
bx ;
b10 (!
bx -!
0.!
0/!
00!
07!
08!
09!
b0 :!
0=!
bx >!
0E!
b0 F!
bx G!
1H!
b0 I!
b0 J!
1<
x=
bx >
x?
x@
xA
xB
xC
bx D
xE
bx F
xG
xH
xI
xJ
bx K
xL
xM
xN
xO
xP
xQ
xR
xS
bx T
xU
xW
xX
bx Y
xZ
x[
x\
x]
bx ^
x_
bx `
xa
xb
b10000 "
b0 $
b1 %
b1 &
b0 '
b0 (
b1 )
b0 ?!
b1 @!
b10 A!
b11 B!
b100 C!
b101 D!
r542.6 !
r8680.549999999999 #
bx V
07
06
05
04
03
02
01
00
08
09
0:
xq
xp
xo
xn
0r
0s
0{
0z
0y
0x
0w
0v
0u
0t
x|
0}
x~
0$!
0#!
0"!
0!!
0'!
0&!
0%!
0)!
0*!
0+!
z,!
03!
04!
05!
06!
0;!
1<!
0m
0l
0k
0j
1i
0h
0g
0f
1e
1d
1c
02!
11!
$end
#271300
0*
0c
#542600
0+
1*
0d
1c
b0 -!
b111 >!
b0 G!
0~
0q
0p
0o
0n
0|
#813900
0*
0c
#1085200
1*
1c
#1356500
0*
0c
#1492150
b0 K
0L
0M
0N
1O
1=
#1627800
1*
1c
#1899100
0*
0c
#2034750
1+
b10110010 >
0?
0@
0A
0B
0C
0P
0Q
0R
b0 ;
1d
#2170400
1*
1c
#2441700
0*
0c
#2713000
1*
1c
#2984300
0*
0c
#3255600
1*
1c
#3526900
0*
0c
#3798200
1*
1c
#4069500
0*
0c
#4340275
0<
#4340800
1*
1c
#4612100
0*
0c
#4883400
1*
1c
#5154700
0*
0c
#5426000
1*
1c
#5697300
0*
0c
#5968600
1*
1c
#6239900
0*
0c
#6511200
1*
1c
#6782500
0*
0c
#7053800
1*
1c
#7325100
0*
0c
#7596400
1*
1c
#7867700
0*
0c
#8139000
1*
1c
#8410300
0*
0c
#8680550
1<
b1 ;
0,
1S
b10110010 T
b0 V
0e
1+!
b1 J!
#8681600
1*
1c
b1 I!
b1100 F!
0H!
1"!
1!!
14!
13!
#8952900
0*
0c
#9224200
1*
1c
b1 :!
b110 >!
#9495500
0*
0c
#9766800
1*
1c
b100 >!
b10 :!
#10038100
0*
0c
#10309400
1*
1c
b11 :!
b0 >!
#10580700
0*
0c
#10852000
1*
1c
b100 :!
#11123300
0*
0c
#11394600
1*
1c
b101 :!
#11665900
0*
0c
#11937200
1*
1c
b110 :!
#12208500
0*
0c
#12479800
1*
1c
b111 :!
#12751100
0*
0c
#13020825
0<
#13022400
1*
1c
b1000 :!
#13293700
0*
0c
#13565000
1*
1c
b1001 :!
10!
1*!
#13836300
0*
0c
#14107600
1*
1c
b1010 :!
00!
0*!
#14378900
0*
0c
#14650200
1*
1c
b1011 :!
#14921500
0*
0c
#15192800
1*
1c
b1100 :!
#15464100
0*
0c
#15735400
1*
1c
b1101 :!
#16006700
0*
0c
#16278000
1*
1c
b1110 :!
#16549300
0*
0c
#16820600
1*
1c
b1111 :!
1.!
1r
#17091900
0*
0c
#17361100
1<
b10 ;
b1 V
#17363200
1*
1c
b1 G!
b0 :!
1q
0.!
b10 J!
0r
#17634500
0*
0c
#17905800
1*
1c
b10 I!
b1 :!
b1000 F!
0"!
04!
#18177100
0*
0c
#18448400
1*
1c
b10 :!
#18719700
0*
0c
#18991000
1*
1c
b11 :!
#19262300
0*
0c
#19533600
1*
1c
b100 :!
#19804900
0*
0c
#20076200
1*
1c
b101 :!
#20347500
0*
0c
#20618800
1*
1c
b110 :!
#20890100
0*
0c
#21161400
1*
1c
b111 :!
#21432700
0*
0c
#21701375
0<
#21704000
1*
1c
b1000 :!
#21975300
0*
0c
#22246600
1*
1c
b1001 :!
10!
1*!
#22517900
0*
0c
#22789200
1*
1c
b1010 :!
00!
0*!
#23060500
0*
0c
#23331800
1*
1c
b1011 :!
#23603100
0*
0c
#23874400
1*
1c
b1100 :!
#24145700
0*
0c
#24417000
1*
1c
b1101 :!
#24688300
0*
0c
#24959600
1*
1c
b1110 :!
#25230900
0*
0c
#25502200
1*
1c
b1111 :!
1.!
1r
#25773500
0*
0c
#26041650
1<
b11 ;
1,
b10 V
1e
0+!
#26044800
1*
1c
b1 >!
b10 G!
b0 :!
0q
1p
0.!
0r
#26316100
0*
0c
#26587400
1*
1c
b1 :!
b11 >!
#26858700
0*
0c
#27130000
1*
1c
b111 >!
b10 :!
#27401300
0*
0c
#27672600
1*
1c
b11 :!
#27943900
0*
0c
#28215200
1*
1c
b100 :!
#28486500
0*
0c
#28757800
1*
1c
b101 :!
#29029100
0*
0c
#29300400
1*
1c
b110 :!
#29571700
0*
0c
#29843000
1*
1c
b111 :!
#30114300
0*
0c
#30381925
0<
#30385600
1*
1c
b1000 :!
#30656900
0*
0c
#30928200
1*
1c
b1001 :!
10!
1*!
1=!
1s
#31199500
0*
0c
#31470800
1*
1c
b100 -!
b1010 :!
00!
0*!
0=!
0s
#31742100
0*
0c
#32013400
1*
1c
b1011 :!
#32284700
0*
0c
#32556000
1*
1c
b1100 :!
#32827300
0*
0c
#33098600
1*
1c
b1101 :!
#33369900
0*
0c
#33641200
1*
1c
b1110 :!
#33912500
0*
0c
#34183800
1*
1c
b1111 :!
1.!
1r
#34455100
0*
0c
#34722200
1<
b100 ;
0,
b11 V
0e
1+!
#34726400
1*
1c
b110 >!
b11 G!
b0 :!
1q
0.!
0r
#34997700
0*
0c
#35269000
1*
1c
b1 :!
b100 >!
#35540300
0*
0c
#35811600
1*
1c
b0 >!
b10 :!
#36082900
0*
0c
#36354200
1*
1c
b11 :!
#36625500
0*
0c
#36896800
1*
1c
b100 :!
#37168100
0*
0c
#37439400
1*
1c
b101 :!
#37710700
0*
0c
#37982000
1*
1c
b110 :!
#38253300
0*
0c
#38524600
1*
1c
b111 :!
#38795900
0*
0c
#39062475
0<
#39067200
1*
1c
b1000 :!
#39338500
0*
0c
#39609800
1*
1c
b1001 :!
10!
1*!
#39881100
0*
0c
#40152400
1*
1c
b1010 :!
00!
0*!
#40423700
0*
0c
#40695000
1*
1c
b1011 :!
#40966300
0*
0c
#41237600
1*
1c
b1100 :!
#41508900
0*
0c
#41780200
1*
1c
b1101 :!
#42051500
0*
0c
#42322800
1*
1c
b1110 :!
#42594100
0*
0c
#42865400
1*
1c
b1111 :!
1.!
1r
#43136700
0*
0c
#43402750
1<
b101 ;
b100 V
#43408000
1*
1c
b100 G!
b0 :!
0q
0p
1o
0.!
0r
#43679300
0*
0c
#43950600
1*
1c
b1 :!
#44221900
0*
0c
#44493200
1*
1c
b10 :!
#44764500
0*
0c
#45035800
1*
1c
b11 :!
#45307100
0*
0c
#45578400
1*
1c
b100 :!
#45849700
0*
0c
#46121000
1*
1c
b101 :!
#46392300
0*
0c
#46663600
1*
1c
b110 :!
#46934900
0*
0c
#47206200
1*
1c
b111 :!
#47477500
0*
0c
#47743025
0<
#47748800
1*
1c
b1000 :!
#48020100
0*
0c
#48291400
1*
1c
b1001 :!
10!
1*!
#48562700
0*
0c
#48834000
1*
1c
b1010 :!
00!
0*!
#49105300
0*
0c
#49376600
1*
1c
b1011 :!
#49647900
0*
0c
#49919200
1*
1c
b1100 :!
#50190500
0*
0c
#50461800
1*
1c
b1101 :!
#50733100
0*
0c
#51004400
1*
1c
b1110 :!
#51275700
0*
0c
#51547000
1*
1c
b1111 :!
1.!
1r
#51818300
0*
0c
#52083300
1<
b110 ;
1,
b101 V
1e
0+!
#52089600
1*
1c
b1 >!
b101 G!
b0 :!
1q
0.!
0r
#52360900
0*
0c
#52632200
1*
1c
b1 :!
b11 >!
#52903500
0*
0c
#53174800
1*
1c
b111 >!
b10 :!
#53446100
0*
0c
#53717400
1*
1c
b11 :!
#53988700
0*
0c
#54260000
1*
1c
b100 :!
#54531300
0*
0c
#54802600
1*
1c
b101 :!
#55073900
0*
0c
#55345200
1*
1c
b110 :!
#55616500
0*
0c
#55887800
1*
1c
b111 :!
#56159100
0*
0c
#56423575
0<
#56430400
1*
1c
b1000 :!
#56701700
0*
0c
#56973000
1*
1c
b1001 :!
10!
1*!
1=!
1s
#57244300
0*
0c
#57515600
1*
1c
b100100 -!
b1010 :!
00!
0*!
0=!
0s
#57786900
0*
0c
#58058200
1*
1c
b1011 :!
#58329500
0*
0c
#58600800
1*
1c
b1100 :!
#58872100
0*
0c
#59143400
1*
1c
b1101 :!
#59414700
0*
0c
#59686000
1*
1c
b1110 :!
#59957300
0*
0c
#60228600
1*
1c
b1111 :!
1.!
1r
#60499900
0*
0c
#60763850
1<
b111 ;
b110 V
#60771200
1*
1c
b110 G!
b0 :!
0q
1p
0.!
0r
#61042500
0*
0c
#61313800
1*
1c
b1 :!
#61585100
0*
0c
#61856400
1*
1c
b10 :!
#62127700
0*
0c
#62399000
1*
1c
b11 :!
#62670300
0*
0c
#62941600
1*
1c
b100 :!
#63212900
0*
0c
#63484200
1*
1c
b101 :!
#63755500
0*
0c
#64026800
1*
1c
b110 :!
#64298100
0*
0c
#64569400
1*
1c
b111 :!
#64840700
0*
0c
#65104125
0<
#65112000
1*
1c
b1000 :!
#65383300
0*
0c
#65654600
1*
1c
b1001 :!
10!
1*!
1=!
1s
#65925900
0*
0c
#66197200
1*
1c
b1100100 -!
b1010 :!
00!
0*!
0=!
0s
#66468500
0*
0c
#66739800
1*
1c
b1011 :!
#67011100
0*
0c
#67282400
1*
1c
b1100 :!
#67553700
0*
0c
#67825000
1*
1c
b1101 :!
#68096300
0*
0c
#68367600
1*
1c
b1110 :!
#68638900
0*
0c
#68910200
1*
1c
b1111 :!
1.!
1r
#69181500
0*
0c
#69444400
1<
b1000 ;
0,
b111 V
0e
1+!
#69452800
1*
1c
b110 >!
b111 G!
b0 :!
1q
0.!
0r
#69724100
0*
0c
#69995400
1*
1c
b1 :!
b100 >!
#70266700
0*
0c
#70538000
1*
1c
b0 >!
b10 :!
#70809300
0*
0c
#71080600
1*
1c
b11 :!
#71351900
0*
0c
#71623200
1*
1c
b100 :!
#71894500
0*
0c
#72165800
1*
1c
b101 :!
#72437100
0*
0c
#72708400
1*
1c
b110 :!
#72979700
0*
0c
#73251000
1*
1c
b111 :!
#73522300
0*
0c
#73784675
0<
#73793600
1*
1c
b1000 :!
#74064900
0*
0c
#74336200
1*
1c
b1001 :!
10!
1*!
#74607500
0*
0c
#74878800
1*
1c
b1010 :!
00!
0*!
#75150100
0*
0c
#75421400
1*
1c
b1011 :!
#75692700
0*
0c
#75964000
1*
1c
b1100 :!
#76235300
0*
0c
#76506600
1*
1c
b1101 :!
#76777900
0*
0c
#77049200
1*
1c
b1110 :!
#77320500
0*
0c
#77591800
1*
1c
b1111 :!
1.!
1r
#77863100
0*
0c
#78124950
1<
b1001 ;
1,
b1000 V
1e
0+!
#78134400
1*
1c
b1 >!
b1000 G!
b0 :!
0q
0p
0o
1n
0.!
0r
#78405700
0*
0c
#78677000
1*
1c
b1 :!
b11 >!
#78948300
0*
0c
#79219600
1*
1c
b111 >!
b10 :!
#79490900
0*
0c
#79762200
1*
1c
b11 :!
#80033500
0*
0c
#80304800
1*
1c
b100 :!
#80576100
0*
0c
#80847400
1*
1c
b101 :!
#81118700
0*
0c
#81390000
1*
1c
b110 :!
#81661300
0*
0c
#81932600
1*
1c
b111 :!
#82203900
0*
0c
#82465225
0<
#82475200
1*
1c
b1000 :!
#82746500
0*
0c
#83017800
1*
1c
b1001 :!
10!
1*!
1=!
1s
#83289100
0*
0c
#83560400
1*
1c
b101100100 -!
b1010 :!
00!
0*!
0=!
0s
#83831700
0*
0c
#84103000
1*
1c
b1011 :!
#84374300
0*
0c
#84645600
1*
1c
b1100 :!
#84916900
0*
0c
#85188200
1*
1c
b1101 :!
#85459500
0*
0c
#85730800
1*
1c
b1110 :!
#86002100
0*
0c
#86273400
1*
1c
b1111 :!
1.!
1r
#86544700
0*
0c
#86805500
1<
b1010 ;
b10110010 K
0O
0U
0]
b10110010 ^
#86816000
1*
1c
b1001 G!
b0 :!
1q
0.!
b100 J!
0r
#87087300
0*
0c
#87358600
1*
1c
b100 I!
b1 :!
b1001 F!
1$!
16!
#87629900
0*
0c
#87901200
1*
1c
b10 :!
#88172500
0*
0c
#88443800
1*
1c
b11 :!
#88715100
0*
0c
#88986400
1*
1c
b100 :!
#89257700
0*
0c
#89529000
1*
1c
b101 :!
#89800300
0*
0c
#90071600
1*
1c
b110 :!
#90342900
0*
0c
#90614200
1*
1c
b111 :!
#90885500
0*
0c
#91145775
0<
#91156800
1*
1c
b1000 :!
#91428100
0*
0c
#91699400
1*
1c
b1001 :!
10!
1*!
1=!
1s
#91970700
0*
0c
#92242000
1*
1c
b1101100100 -!
b1010 :!
1~
00!
0*!
0=!
0s
#92513300
0*
0c
#92784600
1*
1c
b1011 :!
#93055900
0*
0c
#93327200
1*
1c
b1100 :!
#93598500
0*
0c
#93869800
1*
1c
b1101 :!
#94141100
0*
0c
#94412400
1*
1c
b1110 :!
#94683700
0*
0c
#94955000
1*
1c
b1111 :!
1.!
1r
#95226300
0*
0c
#95486050
1<
b1011 ;
0,
1N
0_
b10110010 `
0a
0e
1+!
#95497600
1*
1c
b110 >!
b1010 G!
b0 :!
0q
1p
0.!
0r
#95768900
0*
0c
#96040200
1*
1c
b1 :!
b100 >!
#96164300
0N
0b
#96311500
0*
0c
#96582800
1*
1c
b0 >!
b10 :!
#96854100
0*
0c
#97125400
1*
1c
b11 :!
#97396700
0*
0c
#97668000
1*
1c
b100 :!
#97939300
0*
0c
#98210600
1*
1c
b101 :!
#98481900
0*
0c
#98753200
1*
1c
b110 :!
#99024500
0*
0c
#99295800
1*
1c
b111 :!
#99567100
0*
0c
#99826325
0<
#99838400
1*
1c
b1000 :!
#100109700
0*
0c
#100381000
1*
1c
b1001 :!
10!
1*!
#100652300
0*
0c
#100923600
1*
1c
b1010 :!
00!
0*!
#101194900
0*
0c
#101466200
1*
1c
b1011 :!
#101737500
0*
0c
#102008800
1*
1c
b1100 :!
#102280100
0*
0c
#102551400
1*
1c
b1101 :!
#102822700
0*
0c
#103094000
1*
1c
b1110 :!
#103365300
0*
0c
#103636600
1*
1c
b1111 :!
1.!
1r
#103907900
0*
0c
#104166600
1<
#104179200
1*
1c
b1011 G!
b0 :!
1q
0.!
b101 J!
0r
#104450500
0*
0c
#104721800
1*
1c
b101 I!
b1 :!
1E!
b0 F!
1H!
18
0$!
0!!
1z
1w
1v
1t
16
13
12
10
06!
03!
#104993100
0*
0c
#105264400
1*
1c
b0 G!
b0 :!
0q
0p
0n
b0 J!
#105535700
0*
0c
#105807000
1*
1c
b0 I!
0E!
b1 J!
08
0z
0w
0v
0t
06
03
02
00
#106078300
0*
0c
#106349600
1*
1c
b1 I!
b1100 F!
0H!
1"!
1!!
14!
13!
#106620900
0*
0c
#106892200
1*
1c
b1 :!
#107163500
0*
0c
#107434800
1*
1c
b10 :!
#107706100
0*
0c
#107977400
1*
1c
b11 :!
#108248700
0*
0c
#108506875
0<
#108520000
1*
1c
b100 :!
#108791300
0*
0c
#109062600
1*
1c
b101 :!
#109333900
0*
0c
#109605200
1*
1c
b110 :!
#109876500
0*
0c
#110147800
1*
1c
b111 :!
#110419100
0*
0c
#110690400
1*
1c
b1000 :!
#110961700
0*
0c
#111233000
1*
1c
b1001 :!
10!
1*!
#111504300
0*
0c
#111775600
1*
1c
b1010 :!
00!
0*!
#112046900
0*
0c
#112318200
1*
1c
b1011 :!
#112589500
0*
0c
#112847150
1<
#112860800
1*
1c
b1100 :!
#113132100
0*
0c
#113403400
1*
1c
b1101 :!
#113674700
0*
0c
#113946000
1*
1c
b1110 :!
#114217300
0*
0c
#114488600
1*
1c
b1111 :!
1.!
1r
#114759900
0*
0c
#115031200
1*
1c
b1 G!
b0 :!
1q
0.!
b10 J!
0r
#115302500
0*
0c
#115573800
1*
1c
b10 I!
b1 :!
b1000 F!
0"!
04!
#115845100
0*
0c
#116116400
1*
1c
b10 :!
#116387700
0*
0c
#116659000
1*
1c
b11 :!
#116930300
0*
0c
#117187425
0<
#117201600
1*
1c
b100 :!
#117472900
0*
0c
#117744200
1*
1c
b101 :!
#118015500
0*
0c
#118286800
1*
1c
b110 :!
#118558100
0*
0c
#118829400
1*
1c
b111 :!
#119100700
0*
0c
#119372000
1*
1c
b1000 :!
#119643300
0*
0c
#119914600
1*
1c
b1001 :!
10!
1*!
#120185900
0*
0c
#120457200
1*
1c
b1010 :!
00!
0*!
#120728500
0*
0c
#120999800
1*
1c
b1011 :!
#121271100
0*
0c
#121527700
1<
#121542400
1*
1c
b1100 :!
#121813700
0*
0c
#122085000
1*
1c
b1101 :!
#122356300
0*
0c
#122627600
1*
1c
b1110 :!
#122898900
0*
0c
#123170200
1*
1c
b1111 :!
1.!
1r
#123441500
0*
0c
#123712800
1*
1c
b10 G!
b0 :!
0q
1p
0.!
0r
#123984100
0*
0c
#124255400
1*
1c
b1 :!
#124526700
0*
0c
#124798000
1*
1c
b10 :!
#125069300
0*
0c
#125340600
1*
1c
b11 :!
#125611900
0*
0c
#125867975
0<
#125883200
1*
1c
b100 :!
#126154500
0*
0c
#126425800
1*
1c
b101 :!
#126697100
0*
0c
#126968400
1*
1c
b110 :!
#127239700
0*
0c
#127511000
1*
1c
b111 :!
#127782300
0*
0c
#128053600
1*
1c
b1000 :!
#128324900
0*
0c
#128596200
1*
1c
b1001 :!
10!
1*!
#128867500
0*
0c
#129138800
1*
1c
b1101100000 -!
b1010 :!
00!
0*!
#129410100
0*
0c
#129681400
1*
1c
b1011 :!
#129952700
0*
0c
#130208250
1<
#130224000
1*
1c
b1100 :!
#130495300
0*
0c
#130766600
1*
1c
b1101 :!
#131037900
0*
0c
#131309200
1*
1c
b1110 :!
#131580500
0*
0c
#131851800
1*
1c
b1111 :!
1.!
1r
#132123100
0*
0c
#132394400
1*
1c
b11 G!
b0 :!
1q
0.!
0r
#132665700
0*
0c
#132937000
1*
1c
b1 :!
#133208300
0*
0c
#133479600
1*
1c
b10 :!
#133750900
0*
0c
#134022200
1*
1c
b11 :!
#134293500
0*
0c
#134548525
0<
#134564800
1*
1c
b100 :!
#134836100
0*
0c
#135107400
1*
1c
b101 :!
#135378700
0*
0c
#135650000
1*
1c
b110 :!
#135921300
0*
0c
#136192600
1*
1c
b111 :!
#136463900
0*
0c
#136735200
1*
1c
b1000 :!
#137006500
0*
0c
#137277800
1*
1c
b1001 :!
10!
1*!
#137549100
0*
0c
#137820400
1*
1c
b1010 :!
00!
0*!
#138091700
0*
0c
#138363000
1*
1c
b1011 :!
#138634300
0*
0c
#138888800
1<
#138905600
1*
1c
b1100 :!
#139176900
0*
0c
#139448200
1*
1c
b1101 :!
#139719500
0*
0c
#139990800
1*
1c
b1110 :!
#140262100
0*
0c
#140533400
1*
1c
b1111 :!
1.!
1r
#140804700
0*
0c
#141076000
1*
1c
b100 G!
b0 :!
0q
0p
1o
0.!
0r
#141347300
0*
0c
#141618600
1*
1c
b1 :!
#141889900
0*
0c
#142161200
1*
1c
b10 :!
#142432500
0*
0c
#142703800
1*
1c
b11 :!
#142975100
0*
0c
#143229075
0<
#143246400
1*
1c
b100 :!
#143517700
0*
0c
#143789000
1*
1c
b101 :!
#144060300
0*
0c
#144331600
1*
1c
b110 :!
#144602900
0*
0c
#144874200
1*
1c
b111 :!
#145145500
0*
0c
#145416800
1*
1c
b1000 :!
#145688100
0*
0c
#145959400
1*
1c
b1001 :!
10!
1*!
#146230700
0*
0c
#146502000
1*
1c
b1010 :!
00!
0*!
#146773300
0*
0c
#147044600
1*
1c
b1011 :!
#147315900
0*
0c
#147569350
1<
#147587200
1*
1c
b1100 :!
#147858500
0*
0c
#148129800
1*
1c
b1101 :!
#148401100
0*
0c
#148672400
1*
1c
b1110 :!
#148943700
0*
0c
#149215000
1*
1c
b1111 :!
1.!
1r
#149486300
0*
0c
#149757600
1*
1c
b101 G!
b0 :!
1q
0.!
0r
#150028900
0*
0c
#150300200
1*
1c
b1 :!
#150571500
0*
0c
#150842800
1*
1c
b10 :!
#151114100
0*
0c
#151385400
1*
1c
b11 :!
#151656700
0*
0c
#151909625
0<
#151928000
1*
1c
b100 :!
#152199300
0*
0c
#152470600
1*
1c
b101 :!
#152741900
0*
0c
#153013200
1*
1c
b110 :!
#153284500
0*
0c
#153555800
1*
1c
b111 :!
#153827100
0*
0c
#154098400
1*
1c
b1000 :!
#154369700
0*
0c
#154641000
1*
1c
b1001 :!
10!
1*!
#154912300
0*
0c
#155183600
1*
1c
b1101000000 -!
b1010 :!
00!
0*!
#155454900
0*
0c
#155726200
1*
1c
b1011 :!
#155997500
0*
0c
#156249900
1<
#156268800
1*
1c
b1100 :!
