UART_TX/Simulation/Result.vcd
$date
	Thu Mar 14 21:51:15 2024
$end
$version
	ModelSim Version 10.1d
$end
$timescale
	1ns
$end
$scope module tb_UART_TX $end
$var parameter 32 ! Width $end
$var parameter 1 " Start_bit $end
$var parameter 1 # Stop_bit $end
$var parameter 0 $ Clock_Period $end
$var reg 1 % tb_clk $end
$var reg 1 & tb_rst $end
$var reg 8 ' tb_P_data [7:0] $end
$var reg 1 ( tb_Data_valid $end
$var reg 1 ) tb_PAR_TYP $end
$var reg 1 * tb_PAR_EN $end
$var wire 1 + tb_Tx_out $end
$var wire 1 , tb_Busy $end
$scope task Initialize $end
$upscope $end
$scope task Reset $end
$upscope $end
$scope task Testcase_No_parity $end
$var reg 8 - test_bit [7:0] $end
$var reg 10 . Required_Sequence [9:0] $end
$var reg 10 / Actual_Sequence [9:0] $end
$var integer 32 0 i $end
$upscope $end
$scope task Testcase_With_parity $end
$var reg 8 1 test_bit [7:0] $end
$var reg 1 2 Parity_bit $end
$var reg 1 3 Parity_type $end
$var reg 11 4 Required_Sequence [10:0] $end
$var reg 11 5 Actual_Sequence [10:0] $end
$var integer 32 6 i $end
$upscope $end
$scope module DUT $end
$var parameter 32 7 Width $end
$var parameter 1 8 Start_bit $end
$var parameter 1 9 Stop_bit $end
$var parameter 1 : Idle_bit $end
$var wire 1 ; clk $end
$var wire 1 < rst $end
$var wire 1 = P_data [7] $end
$var wire 1 > P_data [6] $end
$var wire 1 ? P_data [5] $end
$var wire 1 @ P_data [4] $end
$var wire 1 A P_data [3] $end
$var wire 1 B P_data [2] $end
$var wire 1 C P_data [1] $end
$var wire 1 D P_data [0] $end
$var wire 1 E Data_valid $end
$var wire 1 F PAR_TYP $end
$var wire 1 G PAR_EN $end
$var wire 1 + Tx_out $end
$var wire 1 , Busy $end
$var wire 1 H Data_serial $end
$var wire 1 I Parity_bit $end
$var wire 1 J Ser_done $end
$var wire 1 K Ser_enable $end
$var wire 1 L Mux_sel [2] $end
$var wire 1 M Mux_sel [1] $end
$var wire 1 N Mux_sel [0] $end
$var reg 1 O Tx_out_reg $end
$scope module ser_block $end
$var parameter 32 P Width $end
$var wire 1 ; clk $end
$var wire 1 < rst $end
$var wire 1 = parallel_in [7] $end
$var wire 1 > parallel_in [6] $end
$var wire 1 ? parallel_in [5] $end
$var wire 1 @ parallel_in [4] $end
$var wire 1 A parallel_in [3] $end
$var wire 1 B parallel_in [2] $end
$var wire 1 C parallel_in [1] $end
$var wire 1 D parallel_in [0] $end
$var wire 1 K ser_en $end
$var wire 1 E data_valid $end
$var reg 1 Q serial_out $end
$var wire 1 J ser_done $end
$var reg 8 R data_reg [7:0] $end
$var reg 8 S Counter [7:0] $end
$upscope $end
$scope module parity_block $end
$var parameter 32 T Width $end
$var wire 1 E Data_valid $end
$var wire 1 F parity_type $end
$var wire 1 = in_data [7] $end
$var wire 1 > in_data [6] $end
$var wire 1 ? in_data [5] $end
$var wire 1 @ in_data [4] $end
$var wire 1 A in_data [3] $end
$var wire 1 B in_data [2] $end
$var wire 1 C in_data [1] $end
$var wire 1 D in_data [0] $end
$var reg 1 U parity_bit $end
$var reg 8 V internal_reg [7:0] $end
$upscope $end
$scope module FSM_control_block $end
$var parameter 3 W Idle_state $end
$var parameter 3 X Start_state $end
$var parameter 3 Y Data_state $end
$var parameter 3 Z Parity_state $end
$var parameter 3 [ Stop_state $end
$var parameter 3 \ Start_bit $end
$var parameter 3 ] Stop_bit $end
$var parameter 3 ^ Data_bits $end
$var parameter 3 _ Parity_bit $end
$var parameter 3 ` Idle_bit $end
$var wire 1 ; clk $end
$var wire 1 < rst $end
$var wire 1 E Data_valid $end
$var wire 1 J ser_done $end
$var wire 1 G parity_enable $end
$var reg 1 a ser_en $end
$var reg 3 b Mux_sel [2:0] $end
$var reg 1 c Busy $end
$var reg 3 d current_state [2:0] $end
$var reg 3 e next_state [2:0] $end
$upscope $end
$upscope $end
$upscope $end
$scope begin std $end
$upscope $end
$enddefinitions $end
#0
$dumpvars
0%
1&
b0 '
0(
0)
0*
bx -
bx .
bx /
bx 1
x2
x3
bx 4
bx 5
xO
xQ
bx R
bx S
xU
bx V
xa
bx b
xc
bx d
b100 e
b1000 !
b0 "
b1 #
b1000 7
b0 8
b1 9
b1 :
b1000 P
b1000 T
b0 W
b1 X
b11 Y
b10 Z
b100 [
b0 \
b1 ]
b11 ^
b10 _
b110 `
r8.68 $
bx 0
bx 6
x+
x,
xH
xI
xJ
xK
xN
xM
xL
0;
1<
0D
0C
0B
0A
0@
0?
0>
0=
0E
0F
0G
$end
#2170
0&
0<
b0 R
b0 S
0Q
b100 d
0J
0H
1O
0a
0c
b110 b
1c
b1 b
1+
0K
1,
1N
0M
0L
b0 e
#4340
1%
1&
b10000001 -
1;
1<
b0 d
0c
b110 b
0,
0N
1M
1L
#8680
0%
0;
#13020
1(
b10000001 '
1%
1D
1=
1E
1;
b10000001 R
b10000001 V
b1 e
0U
0I
#17360
0%
0;
#21700
0(
b1100000010 .
1%
0E
1;
b1 d
b0 e
1a
1c
b0 b
1K
1,
0M
0L
0O
b0 0
0+
b11 e
#26040
0%
bx0 /
0;
#30380
1%
b1 0
1;
1Q
b1000000 R
b1 S
b11 d
1H
0a
0c
b110 b
1a
1c
b11 b
1N
1M
1O
1+
#34720
0%
bx10 /
0;
#39060
1%
b10 0
1;
0Q
b100000 R
b10 S
0H
0O
0+
#43400
0%
bx010 /
0;
#47740
1%
b11 0
1;
b10000 R
b11 S
#52080
0%
bx0010 /
0;
#56420
1%
b100 0
1;
b1000 R
b100 S
#60760
0%
bx00010 /
0;
#65100
1%
b101 0
1;
b100 R
b101 S
#69440
0%
bx000010 /
0;
#73780
1%
b110 0
1;
b10 R
b110 S
#78120
0%
bx0000010 /
0;
#82460
1%
b111 0
1;
b1 R
b111 S
#86800
0%
bx00000010 /
0;
#91140
1%
b1000 0
1;
1Q
b0 R
b1000 S
1H
1J
1O
1+
b100 e
#95480
0%
bx100000010 /
0;
#99820
1%
b1001 0
1;
b100 d
0a
0c
b110 b
1c
b1 b
0K
0M
b0 e
#104160
0%
b1100000010 /
0;
#108500
1%
b1010 0
1;
b0 d
0c
b110 b
0,
0N
1M
1L
#112840
0%
0;
#117180
1%
b1011 0
b10000001 1
02
03
1;
#121520
0%
0;
#125860
1(
1*
1%
1E
1G
1;
b10000001 R
b0 S
0Q
b1 e
0J
0H
#130200
0%
0;
#134540
0(
b10100000010 4
1%
0E
1;
b1 d
b0 e
1a
1c
b0 b
1K
1,
0M
0L
0O
b0 6
0+
b11 e
#138880
0%
bx0 5
0;
#143220
1%
b1 6
1;
1Q
b1000000 R
b1 S
b11 d
1H
0a
0c
b110 b
1a
1c
b11 b
1N
1M
1O
1+
#147560
0%
bx10 5
0;
#151900
1%
b10 6
1;
0Q
b100000 R
b10 S
0H
0O
0+
#156240
0%
bx010 5
0;
#160580
1%
b11 6
1;
b10000 R
b11 S
#164920
0%
bx0010 5
0;
#169260
1%
b100 6
1;
b1000 R
b100 S
#173600
0%
bx00010 5
0;
#177940
1%
b101 6
1;
b100 R
b101 S
#182280
0%
bx000010 5
0;
#186620
1%
b110 6
1;
b10 R
b110 S
#190960
0%
bx0000010 5
0;
#195300
1%
b111 6
1;
b1 R
b111 S
#199640
0%
bx00000010 5
0;
#203980
1%
b1000 6
1;
1Q
b0 R
b1000 S
1H
1J
1O
1+
b10 e
#208320
0%
bx100000010 5
0;
#212660
1%
b1001 6
1;
b10 d
0a
0c
b110 b
1c
b10 b
0K
0N
0O
0+
b100 e
#217000
0%
bx0100000010 5
0;
#221340
1%
b1010 6
1;
b100 d
0c
b110 b
1c
b1 b
1N
0M
1O
1+
b0 e
#225680
0%
b10100000010 5
0;
#230020
1%
b1011 6
12
13
1;
b0 d
0c
b110 b
0,
0N
1M
1L
#234360
0%
0;
#238700
1(
1)
1%
1E
1F
1;
1U
1I
b10000001 R
b0 S
0Q
b1 e
0J
0H
#243040
0%
0;
#247380
0(
b11100000010 4
1%
0E
1;
b1 d
b0 e
1a
1c
b0 b
1K
1,
0M
0L
0O
b0 6
0+
b11 e
#251720
0%
0;
#256060
1%
b1 6
1;
1Q
b1000000 R
b1 S
b11 d
1H
0a
0c
b110 b
1a
1c
b11 b
1N
1M
1O
1+
#260400
0%
0;
#264740
1%
b10 6
1;
0Q
b100000 R
b10 S
0H
0O
0+
#269080
0%
0;
#273420
1%
b11 6
1;
b10000 R
b11 S
#277760
0%
0;
#282100
1%
b100 6
1;
b1000 R
b100 S
#286440
0%
0;
#290780
1%
b101 6
1;
b100 R
b101 S
#295120
0%
0;
#299460
1%
b110 6
1;
b10 R
b110 S
#303800
0%
0;
#308140
1%
b111 6
1;
b1 R
b111 S
#312480
0%
0;
#316820
1%
b1000 6
1;
1Q
b0 R
b1000 S
1H
1J
1O
1+
b10 e
#321160
0%
0;
#325500
1%
b1001 6
1;
b10 d
0a
0c
b110 b
1c
b10 b
0K
0N
b100 e
#329840
0%
b11100000010 5
0;
#334180
1%
b1010 6
1;
b100 d
0c
b110 b
1c
b1 b
1N
0M
b0 e
#338520
0%
0;
#342860
1%
b1011 6
b1111111 -
1;
b0 d
0c
b110 b
0,
0N
1M
1L
#347200
0%
0;
#351540
1(
0*
0)
b1111111 '
1%
1C
1B
1A
1@
1?
1>
0=
1E
0G
0F
1;
0U
0I
b1111111 R
b0 S
0Q
b1111111 V
b1 e
0J
0H
1U
1I
#355880
0%
0;
#360220
0(
b1011111110 .
1%
0E
1;
b1 d
b0 e
1a
1c
b0 b
1K
1,
0M
0L
0O
b0 0
0+
b11 e
#364560
0%
0;
#368900
1%
b1 0
1;
1Q
b111111 R
b1 S
b11 d
1H
0a
0c
b110 b
1a
1c
b11 b
1N
1M
1O
1+
#373240
0%
0;
#377580
1%
b10 0
1;
b11111 R
b10 S
#381920
0%
b1100000110 /
0;
#386260
1%
b11 0
1;
b1111 R
b11 S
#390600
0%
b1100001110 /
0;
#394940
1%
b100 0
1;
b111 R
b100 S
#399280
0%
b1100011110 /
0;
#403620
1%
b101 0
1;
b11 R
b101 S
#407960
0%
b1100111110 /
0;
#412300
1%
b110 0
1;
b1 R
b110 S
#416640
0%
b1101111110 /
0;
#420980
1%
b111 0
1;
b0 R
b111 S
#425320
0%
b1111111110 /
0;
#429660
1%
b1000 0
1;
0Q
b1000 S
0H
1J
0O
0+
b100 e
#434000
0%
b1011111110 /
0;
#438340
1%
b1001 0
1;
b100 d
0a
0c
b110 b
1c
b1 b
0K
0M
1O
1+
b0 e
#442680
0%
0;
#447020
1%
b1010 0
1;
b0 d
0c
b110 b
0,
0N
1M
1L
#451360
0%
0;
#455700
1%
b1011 0
b1111111 1
03
1;
#460040
0%
0;
#464380
1(
1*
1%
1E
1G
1;
b1111111 R
b0 S
b1 e
0J
#468720
0%
0;
#473060
0(
b11011111110 4
1%
0E
1;
b1 d
b0 e
1a
1c
b0 b
1K
1,
0M
0L
0O
b0 6
0+
b11 e
#477400
0%
0;
#481740
1%
b1 6
1;
1Q
b111111 R
b1 S
b11 d
1H
0a
0c
b110 b
1a
1c
b11 b
1N
1M
1O
1+
#486080
0%
0;
#490420
1%
b10 6
1;
b11111 R
b10 S
#494760
0%
b11100000110 5
0;
#499100
1%
b11 6
1;
b1111 R
b11 S
#503440
0%
b11100001110 5
0;
#507780
1%
b100 6
1;
b111 R
b100 S
#512120
0%
b11100011110 5
0;
#516460
1%
b101 6
1;
b11 R
b101 S
#520800
0%
b11100111110 5
0;
#525140
1%
b110 6
1;
b1 R
b110 S
#529480
0%
b11101111110 5
0;
#533820
1%
b111 6
1;
b0 R
b111 S
#538160
0%
b11111111110 5
0;
#542500
1%
b1000 6
1;
0Q
b1000 S
0H
1J
0O
0+
b10 e
#546840
0%
b11011111110 5
0;
#551180
1%
b1001 6
1;
b10 d
0a
0c
b110 b
1c
b10 b
0K
0N
1O
1+
b100 e
#555520
0%
0;
#559860
1%
b1010 6
1;
b100 d
0c
b110 b
1c
b1 b
1N
0M
b0 e
#564200
0%
0;
#568540
1%
b1011 6
02
13
1;
b0 d
0c
b110 b
0,
0N
1M
1L
#572880
0%
0;
#577220
1(
1)
1%
1E
1F
1;
0U
0I
b1111111 R
b0 S
b1 e
0J
#581560
0%
0;
#585900
0(
b10011111110 4
1%
0E
1;
b1 d
b0 e
1a
1c
b0 b
1K
1,
0M
0L
0O
b0 6
0+
b11 e
#590240
0%
0;
#594580
1%
b1 6
1;
1Q
b111111 R
b1 S
b11 d
1H
0a
0c
b110 b
1a
1c
b11 b
1N
1M
1O
1+
#598920
0%
0;
#603260
1%
b10 6
1;
b11111 R
b10 S
#607600
0%
0;
#611940
1%
b11 6
1;
b1111 R
b11 S
#616280
0%
0;
#620620
1%
b100 6
1;
b111 R
b100 S
#624960
0%
0;
#629300
1%
b101 6
1;
b11 R
b101 S
#633640
0%
0;
#637980
1%
b110 6
1;
b1 R
b110 S
#642320
0%
0;
#646660
1%
b111 6
1;
b0 R
b111 S
#651000
0%
0;
#655340
1%
b1000 6
1;
0Q
b1000 S
0H
1J
0O
0+
b10 e
#659680
0%
0;
#664020
1%
b1001 6
1;
b10 d
0a
0c
b110 b
1c
b10 b
0K
0N
b100 e
#668360
0%
b10011111110 5
0;
#672700
1%
b1010 6
1;
b100 d
0c
b110 b
1c
b1 b
1N
0M
1O
1+
b0 e
#677040
0%
0;
#681380
1%
b1011 6
b10000110 -
1;
b0 d
0c
b110 b
0,
0N
1M
1L
#685720
0%
0;
#690060
1(
0*
0)
b10000110 '
1%
0D
0A
0@
0?
0>
1=
1E
0G
0F
1;
1U
1I
b10000110 R
b0 S
b10000110 V
b1 e
0J
#694400
0%
0;
#698740
0(
b1100001100 .
1%
0E
1;
b1 d
b0 e
1a
1c
b0 b
1K
1,
0M
0L
0O
b0 0
0+
b11 e
#703080
0%
0;
#707420
1%
b1 0
1;
b1000011 R
b1 S
b11 d
0a
0c
b110 b
1a
1c
b11 b
1N
1M
#711760
0%
b1011111100 /
0;
#716100
1%
b10 0
1;
1Q
b100001 R
b10 S
1H
1O
1+
#720440
0%
0;
#724780
1%
b11 0
1;
b10000 R
b11 S
#729120
0%
0;
#733460
1%
b100 0
1;
0Q
b1000 R
b100 S
0H
0O
0+
#737800
0%
b1011101100 /
0;
#742140
1%
b101 0
1;
b100 R
b101 S
#746480
0%
b1011001100 /
0;
#750820
1%
b110 0
1;
b10 R
b110 S
#755160
0%
b1010001100 /
0;
#759500
1%
b111 0
1;
b1 R
b111 S
#763840
0%
b1000001100 /
0;
#768180
1%
b1000 0
1;
1Q
b0 R
b1000 S
1H
1J
1O
1+
b100 e
#772520
0%
b1100001100 /
0;
#776860
1%
b1001 0
1;
b100 d
0a
0c
b110 b
1c
b1 b
0K
0M
b0 e
#781200
0%
0;
#785540
1%
b1010 0
1;
b0 d
0c
b110 b
0,
0N
1M
1L
#789880
0%
0;
#794220
1%
b1011 0
b10000110 1
12
03
1;
#798560
0%
0;
#802900
1(
1*
1%
1E
1G
1;
b10000110 R
b0 S
0Q
b1 e
0J
0H
#807240
0%
0;
#811580
0(
b11100001100 4
1%
0E
1;
b1 d
b0 e
1a
1c
b0 b
1K
1,
0M
0L
0O
b0 6
0+
b11 e
#815920
0%
0;
#820260
1%
b1 6
1;
b1000011 R
b1 S
b11 d
0a
0c
b110 b
1a
1c
b11 b
1N
1M
#824600
0%
b10011111100 5
0;
#828940
1%
b10 6
1;
1Q
b100001 R
b10 S
1H
1O
1+
#833280
0%
0;
#837620
1%
b11 6
1;
b10000 R
b11 S
#841960
0%
0;
#846300
1%
b100 6
1;
0Q
b1000 R
b100 S
0H
0O
0+
#850640
0%
b10011101100 5
0;
#854980
1%
b101 6
1;
b100 R
b101 S
#859320
0%
b10011001100 5
0;
#863660
1%
b110 6
1;
b10 R
b110 S
#868000
0%
b10010001100 5
0;
#872340
1%
b111 6
1;
b1 R
b111 S
#876680
0%
b10000001100 5
0;
#881020
1%
b1000 6
1;
1Q
b0 R
b1000 S
1H
1J
1O
1+
b10 e
#885360
0%
b10100001100 5
0;
#889700
1%
b1001 6
1;
b10 d
0a
0c
b110 b
1c
b10 b
0K
0N
b100 e
#894040
0%
b11100001100 5
0;
#898380
1%
b1010 6
1;
b100 d
0c
b110 b
1c
b1 b
1N
0M
b0 e
#902720
0%
0;
#907060
1%
b1011 6
13
1;
b0 d
0c
b110 b
0,
0N
1M
1L
#911400
0%
0;
#915740
1(
1)
1%
1E
1F
1;
0U
0I
b10000110 R
b0 S
0Q
b1 e
0J
0H
#920080
0%
0;
#924420
0(
1%
0E
1;
b1 d
b0 e
1a
1c
b0 b
1K
1,
0M
0L
0O
b0 6
0+
b11 e
#928760
0%
0;
#933100
1%
b1 6
1;
b1000011 R
b1 S
b11 d
0a
0c
b110 b
1a
1c
b11 b
1N
1M
#937440
0%
0;
#941780
1%
b10 6
1;
1Q
b100001 R
b10 S
1H
1O
1+
#946120
0%
0;
#950460
1%
b11 6
1;
b10000 R
b11 S
#954800
0%
0;
#959140
1%
b100 6
1;
0Q
b1000 R
b100 S
0H
0O
0+
#963480
0%
0;
#967820
1%
b101 6
1;
b100 R
b101 S
#972160
0%
0;
#976500
1%
b110 6
1;
b10 R
b110 S
#980840
0%
0;
#985180
1%
b111 6
1;
b1 R
b111 S
#989520
0%
0;
#993860
1%
b1000 6
1;
1Q
b0 R
b1000 S
1H
1J
1O
1+
b10 e
#998200
0%
0;
#1002540
1%
b1001 6
1;
b10 d
0a
0c
b110 b
1c
b10 b
0K
0N
0O
0+
b100 e
#1006880
0%
b10100001100 5
0;
#1011220
1%
b1010 6
1;
b100 d
0c
b110 b
1c
b1 b
1N
0M
1O
1+
b0 e
#1015560
0%
0;
#1019900
1%
b1011 6
1;
b0 d
0c
b110 b
0,
0N
1M
1L
